{
  "hash" : "e7105c43ada45c9f6e0006854ef1a1d95249231d",
  "plugins" : {
    "total" : {
      "statistic" : {
        "total" : 14,
        "passed" : 8,
        "pending" : 0,
        "canceled" : 0,
        "failed" : 1,
        "broken" : 5
      },
      "time" : {
        "start" : 1549497872858,
        "stop" : 1549499248616,
        "duration" : 1375758
      }
    },
    "defects" : {
      "totalCount" : 6,
      "items" : [ {
        "count" : 1,
        "uid" : "fc09504daafd127",
        "message" : "AssertionError: null",
        "status" : "FAILED"
      }, {
        "count" : 1,
        "uid" : "7bc817778d3b9a4a",
        "message" : "NumberFormatException: For input string: \"-1.54949819E12\"",
        "status" : "BROKEN"
      }, {
        "count" : 1,
        "uid" : "d83980fee367ad74",
        "message" : "NumberFormatException: For input string: \"-1.54949845E12\"",
        "status" : "BROKEN"
      }, {
        "count" : 1,
        "uid" : "eb52f82c30004dc6",
        "message" : "NumberFormatException: For input string: \"-1.54949871E12\"",
        "status" : "BROKEN"
      }, {
        "count" : 1,
        "uid" : "50593d1cdec78d21",
        "message" : "TimeoutException: Expected condition failed: waiting for visibility of element located by By.cssSelector: iframe#WebResource_CustomerSubscriptionHTML (tried for 30 second(s) with 500 MILLISECONDS interval)",
        "status" : "BROKEN"
      }, {
        "count" : 1,
        "uid" : "fc9231cfa7b95f5a",
        "message" : "TimeoutException: Expected condition failed: waiting for visibility of element located by By.cssSelector: iframe#WebResource_IndividualCustomerSubscription (tried for 30 second(s) with 500 MILLISECONDS interval)",
        "status" : "BROKEN"
      } ]
    },
    "xunit" : {
      "totalCount" : 1,
      "items" : [ {
        "uid" : "f52e7fc4dd1efd19",
        "title" : "Surefire suite : Surefire test",
        "statistic" : {
          "total" : 14,
          "passed" : 8,
          "pending" : 0,
          "canceled" : 0,
          "failed" : 1,
          "broken" : 5
        }
      } ]
    },
    "behaviors" : {
      "totalCount" : 1,
      "items" : [ {
        "title" : "Mesure de Performance",
        "statistic" : {
          "total" : 14,
          "passed" : 8,
          "pending" : 0,
          "canceled" : 0,
          "failed" : 1,
          "broken" : 5
        }
      } ]
    },
    "environment" : [ ]
  }
}